…
Main VCF generated with ts_vcf(): geneflow_P3toP1_Nobn_small.vcf.gz 
# A tibble: 1 × 5
  W                                            X             Y     Z          f4
  <chr>                                        <chr>         <chr> <chr>   <dbl>
1 melano_1+melano_2+melano_3+melano_4+melano_5 simulans_1+s… yaku… eugr… 0.00289

PopAncestry summary
Number of ancestral populations: 	4
Number of sample chromosomes: 		40
Number of ancestors: 			215
Total length of genomes: 		4000000.000000
Ancestral coverage: 			4000000.000000

# A tibble: 50 × 10
   name     haplotype  time pop    source_pop  left right length source_pop_id
   <chr>        <int> <dbl> <chr>  <fct>      <dbl> <dbl>  <dbl>         <dbl>
 1 melano_1         1     0 melano yakuba     63508 63837    329             1
 2 melano_1         1     0 melano yakuba     67833 69052   1219             1
 3 melano_1         1     0 melano yakuba     71880 73263   1383             1
 4 melano_1         1     0 melano yakuba     74013 74539    526             1
 5 melano_1         1     0 melano yakuba     80569 90429   9860             1
 6 melano_1         2     0 melano yakuba     63508 63837    329             1
 7 melano_1         2     0 melano yakuba     67833 69052   1219             1
 8 melano_1         2     0 melano yakuba     71880 73263   1383             1
 9 melano_1         2     0 melano yakuba     74013 74539    526             1
10 melano_1         2     0 melano yakuba     80569 90429   9860             1
# ℹ 40 more rows
# ℹ 1 more variable: node_id <dbl>
…
Main VCF generated with ts_vcf(): geneflow_P3toP1_Nobn_small.vcf.gz 
# A tibble: 1 × 5
  W                                            X             Y     Z          f4
  <chr>                                        <chr>         <chr> <chr>   <dbl>
1 melano_1+melano_2+melano_3+melano_4+melano_5 simulans_1+s… yaku… eugr… 0.00289

PopAncestry summary
Number of ancestral populations: 	4
Number of sample chromosomes: 		40
Number of ancestors: 			215
Total length of genomes: 		4000000.000000
Ancestral coverage: 			4000000.000000

# A tibble: 50 × 10
   name     haplotype  time pop    source_pop  left right length source_pop_id
   <chr>        <int> <dbl> <chr>  <fct>      <dbl> <dbl>  <dbl>         <dbl>
 1 melano_1         1     0 melano yakuba     63508 63837    329             1
 2 melano_1         1     0 melano yakuba     67833 69052   1219             1
 3 melano_1         1     0 melano yakuba     71880 73263   1383             1
 4 melano_1         1     0 melano yakuba     74013 74539    526             1
 5 melano_1         1     0 melano yakuba     80569 90429   9860             1
 6 melano_1         2     0 melano yakuba     63508 63837    329             1
 7 melano_1         2     0 melano yakuba     67833 69052   1219             1
 8 melano_1         2     0 melano yakuba     71880 73263   1383             1
 9 melano_1         2     0 melano yakuba     74013 74539    526             1
10 melano_1         2     0 melano yakuba     80569 90429   9860             1
# ℹ 40 more rows
# ℹ 1 more variable: node_id <dbl>
…
